^C:\USERS\משתמש\DESKTOP\C++\SADNA\MYTHON\MYTHON\DEBUG\BOOLEAN.OBJ|C:\USERS\משתמש\DESKTOP\C++\SADNA\MYTHON\MYTHON\DEBUG\HELPER.OBJ|C:\USERS\משתמש\DESKTOP\C++\SADNA\MYTHON\MYTHON\DEBUG\INDENTATIONEXCEPTION.OBJ|C:\USERS\משתמש\DESKTOP\C++\SADNA\MYTHON\MYTHON\DEBUG\INTEGER.OBJ|C:\USERS\משתמש\DESKTOP\C++\SADNA\MYTHON\MYTHON\DEBUG\INTERPRETER.OBJ|C:\USERS\משתמש\DESKTOP\C++\SADNA\MYTHON\MYTHON\DEBUG\PARSER.OBJ|C:\USERS\משתמש\DESKTOP\C++\SADNA\MYTHON\MYTHON\DEBUG\SEQUENCE.OBJ|C:\USERS\משתמש\DESKTOP\C++\SADNA\MYTHON\MYTHON\DEBUG\STRING.OBJ|C:\USERS\משתמש\DESKTOP\C++\SADNA\MYTHON\MYTHON\DEBUG\SYNTAXEXCEPTION.OBJ|C:\USERS\משתמש\DESKTOP\C++\SADNA\MYTHON\MYTHON\DEBUG\TYPE.OBJ|C:\USERS\משתמש\DESKTOP\C++\SADNA\MYTHON\MYTHON\DEBUG\VOID.OBJ
C:\USERS\משתמש\DESKTOP\C++\SADNA\MYTHON\DEBUG\MYTHON.EXE
C:\USERS\משתמש\DESKTOP\C++\SADNA\MYTHON\DEBUG\MYTHON.ILK
C:\USERS\משתמש\DESKTOP\C++\SADNA\MYTHON\DEBUG\MYTHON.PDB
